<?xml version="1.0" standalone="no"?>
<!DOCTYPE svg PUBLIC "-//W3C//DTD SVG 1.1//EN" "http://www.w3.org/Graphics/SVG/1.1/DTD/svg11.dtd" >
<svg xmlns="http://www.w3.org/2000/svg">
<metadata>
This is a custom SVG webfont generated by Font Squirrel.
Copyright   : Copyright c 2008 by Jos Buivengaexljbris All rights reserved
Designer    : Jos Buivenga
Foundry     : Jos Buivenga
Foundry URL : httpwwwjosbuivengademonnl
</metadata>
<defs>
<font id="webfontf5yMKu1h" horiz-adv-x="1255" >
<font-face units-per-em="2048" ascent="1536" descent="-512" />
<missing-glyph horiz-adv-x="550" />
<glyph unicode=" "  horiz-adv-x="550" />
<glyph unicode="&#x09;" horiz-adv-x="550" />
<glyph unicode="&#xa0;" horiz-adv-x="550" />
<glyph unicode="!" horiz-adv-x="643" d="M233 397l-14 1049h205l-12 -1049h-179zM221 0v199h203v-199h-203z" />
<glyph unicode="&#x22;" horiz-adv-x="696" d="M414 1085v385h155v-385h-155zM127 1085v385h156v-385h-156z" />
<glyph unicode="#" horiz-adv-x="1445" d="M274 0l68 391h-266l24 152h269l59 344h-264l24 149h267l71 410h166l-71 -410h317l72 410h166l-72 -410h268l-26 -149h-267l-61 -344h266l-27 -152h-264l-69 -391h-166l67 391h-317l-68 -391h-166zM535 543h317l61 344h-317z" />
<glyph unicode="$" horiz-adv-x="1118" d="M86 256l145 121q4 -8 14.5 -22.5t43.5 -52.5t69.5 -65.5t97 -51t126.5 -23.5q111 0 179 60.5t68 154.5q0 84 -71.5 145.5t-174 106.5t-206 98t-175 146.5t-71.5 222.5q0 143 104.5 244.5t272.5 123.5v193h149v-191q82 -10 154 -35.5t128 -85t56 -141.5v-119h-188v68 q0 55 -62.5 93t-150.5 38q-115 0 -184.5 -53t-69.5 -133q0 -61 39 -108.5t99.5 -81.5t135 -65.5t149.5 -70.5t135 -87t99 -126t39 -176q0 -152 -103.5 -266.5t-275.5 -134.5v-191h-149v189q-240 29 -389 227z" />
<glyph unicode="%" horiz-adv-x="1603" d="M430 864q-129 0 -219 88t-90 215q0 125 90 214t219 89t220 -89t91 -214t-91 -214t-220 -89zM152 0l1105 1446h193l-1106 -1446h-192zM430.5 1016q65.5 0 108.5 43t43 108q0 63 -44 108.5t-107.5 45.5t-107.5 -45t-44 -109q0 -66 43 -108.5t108.5 -42.5zM862 279 q0 125 91 214t221 89q127 0 219 -89.5t92 -214t-92.5 -214t-218.5 -89.5q-131 0 -221.5 88.5t-90.5 215.5zM1022 279q0 -66 44 -109t107.5 -43t107.5 44t44 107.5t-44 108.5t-107.5 45t-107.5 -45t-44 -108z" />
<glyph unicode="&#x26;" horiz-adv-x="1306" d="M90 414q0 119 66.5 223t183.5 137v4q-8 2 -20.5 8.5t-44 32t-56 58t-45 92t-20.5 129.5q0 168 119.5 270t314.5 102l182 -22l-51 -162q-59 14 -109 14q-111 0 -181.5 -62t-70.5 -161q0 -39 11.5 -74.5t38 -72.5t82 -58.5t135.5 -21.5h260v186h198v-186h183v-176h-183 v-193q0 -240 -131 -373t-360 -133q-219 0 -360.5 125.5t-141.5 313.5zM297 416q0 -106 81 -180t214 -74q139 0 216 81t77 246v185h-258q-158 0 -244 -67.5t-86 -190.5z" />
<glyph unicode="'" horiz-adv-x="411" d="M127 1085v385h158v-385h-158z" />
<glyph unicode="(" horiz-adv-x="675" d="M170 674q0 475 231 831h174q-225 -377 -225 -817q0 -471 236 -883h-176q-240 375 -240 869z" />
<glyph unicode=")" horiz-adv-x="675" d="M90 -195q236 412 236 883q0 440 -226 817h174q231 -356 232 -831q0 -494 -240 -869h-176z" />
<glyph unicode="*" horiz-adv-x="983" d="M330 674l-148 106l183 226v4l-279 75l53 172l273 -102l-15 291h187l-17 -291l275 102l55 -172l-281 -75v-4l181 -226l-146 -106l-157 241h-5z" />
<glyph unicode="+" d="M86 504v160h459v503h168v-503h456v-160h-456v-504h-168v504h-459z" />
<glyph unicode="," horiz-adv-x="491" d="M172 215h201l-174 -422h-154z" />
<glyph unicode="-" horiz-adv-x="882" d="M143 496v176h598v-176h-598z" />
<glyph unicode="." horiz-adv-x="491" d="M143 0v211h203v-211h-203z" />
<glyph unicode="/" horiz-adv-x="708" d="M2 -86l520 1610h176l-520 -1610h-176z" />
<glyph unicode="0" horiz-adv-x="1243" d="M623 -25q-512 0 -512 750q0 745 512 745q510 0 510 -745q0 -750 -510 -750zM623 162q303 0 303 563q0 559 -303 559q-305 0 -306 -559q1 -563 306 -563z" />
<glyph unicode="1" horiz-adv-x="1032" d="M131 0v176h318v934l2 90h-5q-16 -33 -67 -84l-135 -133l-123 127l346 336h186v-1270h316v-176h-838z" />
<glyph unicode="2" horiz-adv-x="1173" d="M78 166q0 109 41 196t105.5 145t143.5 107l156 94q78 44 142.5 90t105.5 110.5t41 144.5q0 100 -69.5 164.5t-184.5 64.5q-94 0 -158.5 -41t-64.5 -96v-64h-189v123q0 88 72 151.5t164 89t184 25.5q199 0 327 -115.5t128 -299.5q0 -137 -76 -243.5t-183.5 -173.5 t-215 -125t-183 -133t-75.5 -165q0 -39 51 -39h514q45 0 45 45v92h188v-182q0 -70 -30.5 -100.5t-100.5 -30.5h-741q-82 0 -109.5 37t-27.5 129z" />
<glyph unicode="3" horiz-adv-x="1107" d="M53 178l111 154l17 -18q11 -11 48 -39.5t76 -50t100.5 -39t124.5 -17.5q119 0 203 74.5t84 189.5q0 117 -90 187.5t-221 70.5h-103l-43 109l302 379q18 27 39.5 50l31.5 34l12 10v4q-43 -6 -122 -6h-279q-45 0 -45 -45v-92h-188v182q0 70 28.5 100.5t96.5 30.5h761v-129 l-381 -459q164 -18 287 -124.5t123 -299.5q0 -188 -138 -323.5t-358 -135.5q-133 0 -252.5 51.5t-171.5 100.5z" />
<glyph unicode="4" horiz-adv-x="1177" d="M35 383v131l651 932h234v-887h225v-176h-225v-383h-205v383h-680zM717 559v498l8 147h-4q-37 -70 -74 -121l-315 -434q-37 -51 -76 -92v-4q59 6 123 6h338z" />
<glyph unicode="5" horiz-adv-x="1191" d="M104 178l111 150q4 -6 13.5 -17.5t42 -39t68.5 -48t94.5 -38t119.5 -17.5q135 0 223 83t88 206q0 131 -99 213t-245 82q-72 0 -140.5 -18.5t-100.5 -37.5l-33 -18l-84 39l57 598q6 72 35 101.5t96 29.5h504q70 0 100.5 -31t30.5 -100v-182h-186v92q0 45 -45 45h-303 q-39 0 -45 -45l-29 -264l-10 -76h4q78 43 186 43q229 0 372.5 -136.5t143.5 -338.5q0 -197 -145.5 -337.5t-374.5 -140.5q-133 0 -244.5 51.5t-156.5 100.5z" />
<glyph unicode="6" horiz-adv-x="1161" d="M618 -25q-233 0 -386.5 183.5t-153.5 482.5q0 147 40 289.5t116.5 265.5t204.5 198.5t290 75.5q76 0 146.5 -14t103.5 -31l31 -14l-66 -174q-92 47 -207 47q-184 0 -296.5 -144.5t-137.5 -351.5h4q43 66 132 104t188 38q203 0 329.5 -135.5t126.5 -335.5 q0 -213 -131 -348.5t-334 -135.5zM293 555q0 -145 95 -269t228 -124q123 0 195 84t72 213q0 133 -80 216t-217 83q-119 0 -206 -61.5t-87 -141.5z" />
<glyph unicode="7" horiz-adv-x="1075" d="M129 0l614 1139l84 133v4q-33 -6 -104 -6h-436q-45 0 -45 -45v-92h-189v182q0 70 29 100.5t96 30.5h879v-139l-701 -1307h-227z" />
<glyph unicode="8" horiz-adv-x="1179" d="M86 414q0 195 193 340l45 30v4q-8 4 -19.5 11.5t-42.5 35t-54.5 58.5t-43 83t-19.5 107q0 160 121 273.5t330 113.5q205 0 329 -109.5t124 -281.5q0 -59 -18.5 -116.5t-43 -97.5t-50.5 -70.5t-44 -44.5l-19 -15v-4q215 -125 216 -332q0 -174 -141.5 -299t-358.5 -125 q-211 0 -357.5 121t-146.5 318zM584 852q82 -35 112 -35q41 0 97.5 80t56.5 170q0 98 -70.5 157.5t-183.5 59.5q-115 0 -182.5 -58.5t-67.5 -146.5q0 -86 58.5 -133t179.5 -94zM293 424q0 -117 87 -189.5t210 -72.5q117 0 205 69.5t88 174.5q0 86 -60.5 137t-183.5 100 q-131 53 -150 53q-49 0 -122.5 -85t-73.5 -187z" />
<glyph unicode="9" horiz-adv-x="1161" d="M152 35l65 176q92 -49 207 -49q184 0 297 145.5t137 351.5h-4q-43 -66 -132 -103.5t-187 -37.5q-203 0 -330 134t-127 335q0 213 131 348t334 135q233 0 386.5 -183t153.5 -482q0 -147 -39.5 -289.5t-116.5 -265.5t-205 -199t-290 -76q-76 0 -146.5 14.5t-101.5 30.5z M575 688q119 0 206 61.5t87 141.5q0 145 -95 269t-228 124q-123 0 -194.5 -84t-71.5 -213q0 -131 79.5 -215t216.5 -84z" />
<glyph unicode=":" horiz-adv-x="602" d="M201 825v211h202v-211h-202zM201 0v211h202v-211h-202z" />
<glyph unicode=";" horiz-adv-x="602" d="M201 825v211h202v-211h-202zM92 -207l105 422h198l-149 -422h-154z" />
<glyph unicode="&#x3c;" d="M137 516v135l955 426v-182l-734 -309v-4l734 -310v-182z" />
<glyph unicode="=" d="M139 696v160h977v-160h-977zM139 309v160h977v-160h-977z" />
<glyph unicode="&#x3e;" d="M152 90v182l731 310v4l-731 309v182l954 -426v-135z" />
<glyph unicode="?" horiz-adv-x="927" d="M305 397v97q0 86 36 156.5t87 119.5l102 94q51 45 87 101.5t36 119.5q0 86 -66.5 144.5t-166.5 58.5q-57 0 -115.5 -21.5t-87.5 -41.5l-31 -23l-110 141q14 14 42.5 36t123 59t192.5 37q178 0 303 -104.5t125 -270.5q0 -94 -37 -169t-91 -125l-107 -96 q-53 -46 -90 -103.5t-37 -125.5v-84h-195zM301 0v199h203v-199h-203z" />
<glyph unicode="@" horiz-adv-x="1560" d="M82 493.5q0 317.5 217 537.5t530 220q276 0 404.5 -117.5t128.5 -297.5v-580h147v-150h-559q-186 0 -305 114t-119 274q0 158 118 270.5t306 112.5h221q-4 92 -91 151t-240 59q-236 0 -397.5 -175t-161.5 -418q0 -248 162.5 -418t418.5 -170v-162q-340 0 -560 216 t-220 533.5zM727 496q0 -100 67.5 -170t170.5 -70h206v483h-202q-106 0 -174 -70.5t-68 -172.5z" />
<glyph unicode="A" horiz-adv-x="1361" d="M25 0v176h28q53 0 68 45l452 1225h215l453 -1225q14 -45 68 -45h30v-176h-114q-76 0 -110 23.5t-58 95.5l-109 297h-532l-109 -297q-27 -72 -60.5 -95.5t-109.5 -23.5h-112zM465 588h432l-158 440l-57 203h-4q-29 -127 -55 -203z" />
<glyph unicode="B" horiz-adv-x="1263" d="M209 131v1139h-133v176h618q186 0 303 -98.5t117 -270.5q0 -113 -51 -192.5t-129 -118.5v-4q113 -33 175 -129t62 -221q0 -197 -132 -304.5t-332 -107.5h-367q-70 0 -100.5 30.5t-30.5 100.5zM414 838h282q94 0 151.5 61.5t57.5 157.5t-56 154.5t-157 58.5h-278v-432z M414 221q0 -45 45 -45h258q115 0 179.5 66.5t64.5 179.5q0 111 -67 179.5t-177 68.5h-303v-449z" />
<glyph unicode="C" horiz-adv-x="1435" d="M70 735q0 313 207.5 524t517.5 211q80 0 168 -17t175 -52t143 -98.5t56 -145.5v-141h-188v82q0 84 -112.5 133t-237.5 49q-221 0 -368.5 -151.5t-147.5 -393.5q0 -238 150.5 -402.5t371.5 -164.5q80 0 156.5 20.5t129 49t92.5 57.5t58 49l21 21l110 -148 q-8 -10 -24.5 -26.5t-70.5 -57.5t-115.5 -72.5t-159 -58.5t-199.5 -27q-319 0 -526 218t-207 542z" />
<glyph unicode="D" horiz-adv-x="1464" d="M211 131v1139h-133v176h586q334 0 532.5 -191.5t198.5 -529.5q0 -340 -199 -532.5t-532 -192.5h-322q-70 0 -100.5 30.5t-30.5 100.5zM416 221q0 -45 45 -45h188q246 0 389.5 143.5t143.5 405.5q0 260 -144.5 402.5t-388.5 142.5h-233v-1049z" />
<glyph unicode="E" horiz-adv-x="1163" d="M211 131v1139h-133v176h850q70 0 100.5 -31t30.5 -100v-182h-187v92q0 45 -45 45h-411v-453h506v-176h-506v-420q0 -45 45 -45h422q45 0 45 45v92h188v-182q0 -70 -30.5 -100.5t-100.5 -30.5h-643q-70 0 -100.5 30.5t-30.5 100.5z" />
<glyph unicode="F" horiz-adv-x="1050" d="M211 0v1270h-133v176h796q70 0 101 -31t31 -100v-182h-187v92q0 45 -45 45h-358v-475h493v-177h-493v-618h-205z" />
<glyph unicode="G" horiz-adv-x="1507" d="M72 729q0 313 210 527t519 214q154 0 282.5 -45t182.5 -90l51 -43l-117 -149q-18 16 -50 38.5t-135.5 61.5t-209.5 39q-219 0 -369.5 -156.5t-150.5 -396.5q0 -248 150.5 -404.5t373.5 -156.5q72 0 141.5 18.5t115.5 45t83 53t55 45.5l17 18v146q0 45 -45 45h-89v176h191 q70 0 100.5 -31t30.5 -100v-584h-180v90l2 62h-4q-6 -6 -19.5 -18.5t-56.5 -43.5t-91 -53.5t-126 -42t-158 -19.5q-295 0 -499.5 211t-204.5 543z" />
<glyph unicode="H" horiz-adv-x="1566" d="M211 0v1225q0 45 -45 45h-88v176h207q70 0 100.5 -31t30.5 -100v-506h735v506q0 70 30.5 100.5t100.5 30.5h207v-176h-88q-45 0 -45 -45v-1225h-205v635h-735v-635h-205z" />
<glyph unicode="I" horiz-adv-x="649" d="M86 0v176h141v1094h-141v176h477v-176h-141v-1094h141v-176h-477z" />
<glyph unicode="J" horiz-adv-x="1069" d="M45 416v71h205v-55q0 -139 65.5 -201.5t161.5 -62.5t160.5 62.5t64.5 193.5v801q0 45 -45 45h-354v176h473q70 0 100.5 -31t30.5 -100v-899q0 -219 -127 -330t-305 -111t-304 112t-126 329z" />
<glyph unicode="K" horiz-adv-x="1251" d="M211 0v1225q0 45 -45 45h-88v176h207q70 0 100.5 -31t30.5 -100v-477h137q90 0 119 49l321 559h230l-351 -600q-18 -33 -38.5 -56.5t-30.5 -31.5l-12 -6v-4q41 -10 81 -91l218 -434q23 -47 102 -47h39v-176h-113q-88 0 -127 20.5t-73 88.5l-250 501q-29 53 -129 54h-123 v-664h-205z" />
<glyph unicode="L" horiz-adv-x="1112" d="M211 131v1094q0 45 -45 45h-88v176h207q70 0 100.5 -31t30.5 -100v-1094q0 -45 45 -45h399q45 0 45 45v92h187v-182q0 -70 -31 -100.5t-100 -30.5h-619q-70 0 -100.5 30.5t-30.5 100.5z" />
<glyph unicode="M" horiz-adv-x="1755" d="M41 0v176h70q41 0 45 45l98 1225h211l340 -766l72 -182h4q37 104 71 182l340 766h211l99 -1225q4 -45 45 -45h67v-176h-182q-68 0 -97.5 30.5t-33.5 100.5l-60 764l-4 213h-4q-41 -135 -76 -213l-292 -635h-172l-293 635q-35 76 -78 215h-4q1 -32 0 -62q0 -89 -4 -153 l-58 -764q-4 -70 -33.5 -100.5t-99.5 -30.5h-182z" />
<glyph unicode="N" horiz-adv-x="1566" d="M78 0v176h88q45 0 45 45v1225h186l643 -916l121 -196h4q-14 115 -14 196v785q0 70 31.5 100.5t101.5 30.5h205v-176h-88q-45 0 -45 -45v-1225h-185l-645 915l-118 197h-5q12 -117 13 -197v-784q0 -70 -31 -100.5t-100 -30.5h-207z" />
<glyph unicode="O" horiz-adv-x="1624" d="M70 733q0 311 214 524t527 213t528 -213t215 -524q0 -319 -215 -538.5t-528 -219.5t-527 219.5t-214 538.5zM283 733q0 -238 153.5 -401.5t374.5 -163.5t375.5 164t154.5 401q0 231 -154.5 389t-375.5 158t-374.5 -158t-153.5 -389z" />
<glyph unicode="P" horiz-adv-x="1212" d="M211 0v1270h-133v176h637q201 0 326.5 -124t125.5 -329t-127 -331.5t-325 -126.5h-299v-535h-205zM416 711h266q127 0 200.5 75.5t73.5 206.5q0 129 -72.5 203t-199.5 74h-268v-559z" />
<glyph unicode="Q" horiz-adv-x="1624" d="M70 731q0 313 213 526t526 213q315 0 530 -213t215 -526q0 -268 -170 -475l166 -162l-123 -131l-165 166q-190 -154 -453 -154q-313 0 -526 219.5t-213 536.5zM283 731q0 -238 152.5 -400.5t373.5 -162.5q176 0 299 96l6 4l-160 156l123 133l158 -162q106 145 106 336 q0 233 -153.5 390t-378.5 157q-223 0 -374.5 -157t-151.5 -390z" />
<glyph unicode="R" horiz-adv-x="1265" d="M211 0v1270h-133v176h631q193 0 312.5 -114.5t119.5 -309.5q0 -164 -83 -263.5t-177 -119.5v-4q37 -18 61 -66l174 -346q23 -47 103 -47h26v-176h-100q-88 0 -127 20.5t-74 88.5l-196 389q-27 49 -54.5 63t-89.5 14h-188v-575h-205zM416 752h266q117 0 182.5 69.5 t65.5 192.5q0 121 -64.5 188.5t-179.5 67.5h-270v-518z" />
<glyph unicode="S" horiz-adv-x="1091" d="M70 190l120 146q6 -6 17.5 -18.5t48.5 -42t77 -53t100.5 -42t119.5 -18.5q104 0 176 59.5t72 155.5q0 70 -52.5 126t-129 91t-168 81t-168 92t-129 128t-52.5 188q0 164 130 275.5t333 111.5q88 0 176 -23.5t162 -87t74 -155.5v-119h-189v68q0 55 -67.5 93t-155.5 38 q-115 0 -184.5 -55t-69.5 -139q0 -68 51.5 -121.5t129 -86t168 -76.5t168 -91t129 -132t51.5 -196q0 -172 -125 -292t-334 -120q-86 0 -167 22.5t-135 53.5t-96 62.5t-61 54.5z" />
<glyph unicode="T" horiz-adv-x="1302" d="M549 0v1270h-291q-45 0 -45 -45v-92h-182v190q0 70 26.5 96.5t96.5 26.5h995q70 0 96.5 -26.5t26.5 -96.5v-190h-182v92q0 45 -46 45h-290v-1270h-205z" />
<glyph unicode="U" horiz-adv-x="1490" d="M195 506v719q0 45 -45 45h-89v176h207q70 0 100.5 -31t30.5 -100v-801q0 -162 94.5 -254t252 -92t252 93t94.5 255v799q0 70 31.5 100.5t101.5 30.5h205v-176h-89q-45 0 -45 -45v-719q0 -238 -151.5 -384.5t-396.5 -146.5q-248 0 -400.5 146.5t-152.5 384.5z" />
<glyph unicode="V" horiz-adv-x="1368" d="M575 0l-454 1225q-14 45 -68 45h-28v176h114q78 0 112 -23.5t58 -95.5l318 -891l55 -198h4q27 121 55 198l318 891q27 72 59.5 95.5t110.5 23.5h114v-176h-28q-53 0 -68 -45l-454 -1225h-218z" />
<glyph unicode="W" horiz-adv-x="1982" d="M453 0l-318 1225q-12 45 -69 45h-31v176h117q82 0 120.5 -24.5t57.5 -94.5l223 -930l29 -153h4q12 74 35 153l290 1045h185l270 -1045l31 -153h4q8 76 26 153l228 930q18 72 57 95.5t119 23.5h117v-176h-31q-57 0 -70 -45l-317 -1225h-238l-245 913l-41 199h-5 q-20 -104 -47 -197l-262 -915h-239z" />
<glyph unicode="X" horiz-adv-x="1210" d="M20 0l455 745l-291 474q-31 51 -94 51h-53v176h121q76 0 114.5 -21.5t77.5 -89.5l162 -274l92 -170h4q41 90 88 170l164 274q39 68 78 89.5t117 21.5h119v-176h-52q-37 0 -56 -9.5t-40 -41.5l-293 -474l457 -745h-232l-262 440l-92 164h-4q-41 -86 -88 -166l-260 -438 h-232z" />
<glyph unicode="Y" horiz-adv-x="1234" d="M516 0v631l-366 588q-31 51 -89 51h-41v176h95q76 0 114.5 -20.5t79.5 -90.5l219 -364l88 -162h5q39 82 88 162l217 364q41 70 79.5 90.5t114.5 20.5h94v-176h-38q-59 0 -91 -51l-364 -588v-631h-205z" />
<glyph unicode="Z" horiz-adv-x="1191" d="M37 0v135l713 1004q25 35 52 68l42 50l14 15v4q-39 -6 -108 -6h-465q-45 0 -45 -45v-92h-187v182q0 70 31 100.5t100 30.5h928v-133l-715 -1006q-25 -35 -51.5 -67.5t-40.5 -46.5l-14 -17v-4q39 4 106 4h510q45 0 45 45v92h189v-182q0 -70 -31 -100.5t-100 -30.5h-973z " />
<glyph unicode="[" horiz-adv-x="669" d="M199 -63v1437q0 70 30.5 100.5t100.5 30.5h207v-149h-119q-45 0 -45 -45v-1309q0 -45 45 -45h119v-152h-207q-70 0 -100.5 31t-30.5 101z" />
<glyph unicode="\" horiz-adv-x="696" d="M530 -86l-520 1610h176l521 -1610h-177z" />
<glyph unicode="]" horiz-adv-x="669" d="M133 -43h119q45 0 45 45v1309q0 45 -45 45h-119v149h207q70 0 101.5 -30.5t31.5 -100.5v-1437q0 -70 -31.5 -101t-101.5 -31h-207v152z" />
<glyph unicode="^" d="M141 506l410 940h129l407 -940h-178l-295 721l-292 -721h-181z" />
<glyph unicode="_" horiz-adv-x="1122" d="M10 0h1102v-160h-1102v160z" />
<glyph unicode="`" horiz-adv-x="776" d="M365 1546l-195 260h201l149 -260h-155z" />
<glyph unicode="a" horiz-adv-x="1114" d="M76 291q0 80 32.5 142.5t91 98t122 60t141.5 36t129 14.5t108 3h45v10q0 135 -53 191.5t-176 56.5q-57 0 -113.5 -17.5t-56.5 -62.5v-59h-186v102q0 59 40 101.5t103.5 61t114.5 25.5t100 7q236 0 331 -107.5t95 -298.5v-440q0 -45 45 -45h84v-170h-186q-129 0 -129 119 l4 61h-4q-4 -8 -10.5 -22.5t-34 -49t-62.5 -61.5t-94 -49.5t-129 -22.5q-143 0 -247.5 84.5t-104.5 231.5zM276 301q0 -68 51.5 -117t143.5 -49q119 0 198 103.5t79 226.5v35h-52q-76 0 -132 -5.5t-131 -22.5t-116 -60t-41 -111z" />
<glyph unicode="b" horiz-adv-x="1228" d="M166 0v1231q0 45 -45 45h-84v170h196q70 0 101 -31t31 -100v-338l-5 -86h5q4 6 11 18.5t35.5 41t63.5 51t95.5 41t127.5 18.5q207 0 331 -149.5t124 -393.5t-132 -393.5t-339 -149.5q-197 0 -307 148l-19 27h-4q4 -33 4 -78v-72h-190zM360 514q0 -150 77 -259.5 t216 -109.5q127 0 213 99.5t86 271.5q0 168 -82 269.5t-213 101.5q-127 0 -212 -93.5t-85 -279.5z" />
<glyph unicode="c" horiz-adv-x="1091" d="M74 518q0 231 155.5 387t401.5 156q53 0 112.5 -11.5t120 -36t100.5 -71.5t40 -108v-107h-181v57q0 51 -62.5 79t-129.5 28q-154 0 -254.5 -103.5t-100.5 -267.5q0 -170 106.5 -269t258.5 -99q174 0 309 131l13 12l86 -141q-6 -8 -17.5 -19.5t-52.5 -42.5t-86 -54.5 t-116.5 -43t-149.5 -19.5q-244 0 -398.5 153.5t-154.5 389.5z" />
<glyph unicode="d" horiz-adv-x="1239" d="M76 518q0 246 131 394.5t338 148.5q68 0 125 -16.5t91 -40t59.5 -47t35.5 -39.5l8 -17h4q-4 31 -4 70v260q0 45 -45 45h-84v170h197q70 0 100.5 -31t30.5 -100v-1100q0 -45 45 -45h84v-170h-191q-127 0 -127 111l3 53h-5q-4 -8 -11 -20.5t-35.5 -45t-63.5 -57.5 t-96.5 -45.5t-133.5 -20.5q-209 0 -332.5 149.5t-123.5 393.5zM571 147q127 0 213 93.5t86 279.5q0 150 -76.5 259.5t-218.5 109.5q-127 0 -211.5 -100.5t-84.5 -270.5q0 -168 80.5 -269.5t211.5 -101.5z" />
<glyph unicode="e" horiz-adv-x="1130" d="M74 518q0 244 147.5 393.5t372.5 149.5q211 0 328.5 -137.5t117.5 -348.5l-6 -81h-755q8 -160 110.5 -253.5t245.5 -93.5q80 0 155.5 31t110.5 60l37 30l86 -141q-16 -16 -49 -42t-137.5 -68t-212.5 -42q-244 0 -397.5 155t-153.5 388zM287 639h549q-4 125 -74 194.5 t-170 69.5q-117 0 -199.5 -68.5t-105.5 -195.5z" />
<glyph unicode="f" horiz-adv-x="665" d="M174 0v877h-129v159h129v35q0 98 28.5 171t70.5 113t98.5 63.5t101.5 30.5t92 7l76 -6v-170q-20 4 -51 4q-27 0 -52.5 -4t-57 -17.5t-54.5 -36t-38 -63.5t-15 -96v-31h245v-159h-245v-877h-199z" />
<glyph unicode="g" horiz-adv-x="1218" d="M76 542.5q0 229.5 121.5 374t332.5 144.5q72 0 133.5 -16.5t96.5 -41t59.5 -48t32.5 -40.5l10 -16h4v33q0 104 115 104h193v-170h-82q-45 0 -45 -41v-782q0 -123 -44.5 -217t-120 -148.5t-165.5 -81t-193 -26.5q-182 0 -354 86l68 160q127 -70 282 -70q145 0 236.5 70.5 t91.5 218.5v69l4 66h-4q-96 -158 -309 -158q-211 0 -337 150.5t-126 380zM578 184q121 0 198.5 84t77.5 273q0 348 -293 348q-133 0 -207.5 -91t-74.5 -251q0 -164 81 -263.5t218 -99.5z" />
<glyph unicode="h" horiz-adv-x="1273" d="M166 0v1231q0 45 -45 45h-84v170h196q70 0 101 -31t31 -96v-404l-5 -86h5q41 90 142 161t243 71q354 0 354 -397v-449q0 -45 45 -45h84v-170h-195q-70 0 -100.5 30.5t-30.5 100.5v487q0 125 -41 193t-155 68q-117 0 -206 -71t-122 -185q-18 -53 -18 -138v-485h-199z" />
<glyph unicode="i" horiz-adv-x="563" d="M188 1239v207h179v-207h-179zM184 131v690q0 45 -45 45h-84v170h195q70 0 100.5 -30.5t30.5 -100.5v-690q0 -45 45 -45h84v-170h-195q-70 0 -100.5 30.5t-30.5 100.5z" />
<glyph unicode="j" horiz-adv-x="585" d="M229 1239v207h181v-207h-181zM-41 -248q18 -2 45 -2q35 0 67.5 8.5t70.5 28.5t60.5 69.5t22.5 120.5v844q0 45 -45 45h-84v170h197q70 0 100.5 -30.5t30.5 -100.5v-940q0 -121 -42 -205t-110.5 -119.5t-126 -49t-118.5 -13.5l-68 4v170z" />
<glyph unicode="k" horiz-adv-x="1075" d="M166 0v1231q0 45 -45 45h-84v170h196q72 0 102 -25.5t30 -93.5v-672h92q74 0 108 45l240 336h227l-280 -385q-47 -63 -78 -78v-4q35 -12 69 -77l154 -281q20 -41 88 -41h64v-170h-144q-72 0 -105.5 18.5t-66.5 77.5l-188 348q-25 43 -103 43h-77v-487h-199z" />
<glyph unicode="l" horiz-adv-x="548" d="M170 131v1100q0 45 -45 45h-84v170h197q70 0 100.5 -31t30.5 -100v-1100q0 -45 45 -45h84v-170h-197q-70 0 -100.5 30.5t-30.5 100.5z" />
<glyph unicode="m" horiz-adv-x="1918" d="M174 0v821q0 45 -45 45h-84v170h191q131 0 131 -114v-39l-2 -60h4q39 96 138 167t216 71q258 0 311 -236h4q45 98 146.5 167t222.5 69q342 0 342 -397v-449q0 -45 45 -45h84v-170h-197q-70 0 -100.5 30.5t-30.5 100.5v490q0 125 -37.5 192.5t-144.5 67.5q-102 0 -182 -77 t-109 -190q-16 -70 -16 -141v-473h-199v621q0 123 -35.5 191.5t-142.5 68.5q-109 0 -187.5 -79t-109.5 -196q-14 -57 -14 -133v-473h-199z" />
<glyph unicode="n" horiz-adv-x="1282" d="M174 0v821q0 45 -45 45h-84v170h191q131 0 131 -114v-39l-5 -60h5q41 88 139 163t250 75q182 0 269 -98.5t87 -298.5v-449q0 -45 45 -45h84v-170h-197q-70 0 -100.5 30.5t-30.5 100.5v487q0 125 -39.5 193t-154.5 68q-119 0 -208 -71t-120 -183q-18 -53 -18 -140v-485 h-199z" />
<glyph unicode="o" horiz-adv-x="1263" d="M74 520.5q0 233.5 161.5 387t395.5 153.5q236 0 397.5 -153.5t161.5 -387t-163 -389.5t-396.5 -156t-395 156t-161.5 389.5zM276 520q0 -160 103.5 -266.5t251.5 -106.5q150 0 253 105.5t103 267.5q0 160 -103.5 264.5t-252.5 104.5q-147 0 -251 -104.5t-104 -264.5z" />
<glyph unicode="p" horiz-adv-x="1236" d="M174 -410v1231q0 45 -45 45h-84v170h186q127 0 127 -104l-2 -55h4q4 8 11.5 20t36 44t64.5 56.5t98.5 44t134.5 19.5q207 0 331.5 -149.5t124.5 -393.5t-133 -393.5t-338 -149.5q-63 0 -119.5 17.5t-91.5 41t-60.5 48t-35.5 41.5l-10 18h-4q4 -37 4 -90v-461h-199z M367 514q0 -150 77.5 -259.5t214.5 -109.5q127 0 213 99.5t86 271.5q0 168 -80.5 269.5t-211.5 101.5q-127 0 -213 -93.5t-86 -279.5z" />
<glyph unicode="q" horiz-adv-x="1236" d="M78 518q0 246 130 394.5t337 148.5t315 -148l19 -28h4q-2 23 -2 53q0 98 127 98h186v-170h-84q-45 0 -45 -45v-1231h-199v469l4 91h-4q-4 -6 -11 -18.5t-35.5 -42.5t-63.5 -53.5t-94.5 -42t-129.5 -18.5q-207 0 -330.5 149.5t-123.5 393.5zM573 147q127 0 212 93.5 t85 279.5q0 150 -76.5 259.5t-215.5 109.5q-127 0 -213 -99.5t-86 -271.5q0 -168 81.5 -269.5t212.5 -101.5z" />
<glyph unicode="r" horiz-adv-x="792" d="M174 0v821q0 45 -45 45h-84v170h188q133 0 134 -121v-65l-5 -72h5q39 119 126 195t201 76l54 -5v-196q-27 6 -60 6q-96 0 -176 -65.5t-115 -178.5q-25 -80 -24 -186v-424h-199z" />
<glyph unicode="s" horiz-adv-x="929" d="M55 158l103 133q4 -6 14 -16.5t41 -37t65.5 -47t87 -37t105.5 -16.5q78 0 129 35t51 98q0 51 -58 90t-141 71t-166 71t-141.5 107.5t-58.5 160.5q0 141 108.5 216t276.5 75q123 0 231.5 -48t108.5 -153v-98h-178v51q0 43 -50.5 65.5t-105.5 22.5q-90 0 -141 -31.5 t-51 -91.5q0 -53 58 -93t141 -69.5t166 -66.5t141.5 -105.5t58.5 -164.5q0 -137 -107.5 -220.5t-273.5 -83.5q-78 0 -148.5 18.5t-116.5 45.5t-82 54.5t-52 45.5z" />
<glyph unicode="t" horiz-adv-x="720" d="M182 379v498h-135v159h139v285h195v-285h248v-159h-248v-476q0 -74 22.5 -124t59.5 -71.5t69.5 -29.5t67.5 -8l47 4v-176q-27 -4 -69 -4q-47 0 -92.5 6t-102.5 30.5t-99 64.5t-72 114t-30 172z" />
<glyph unicode="u" horiz-adv-x="1271" d="M170 373v448q0 45 -45 45h-84v170h195q70 0 101.5 -30.5t31.5 -96.5v-491q0 -125 40 -191.5t152 -66.5q154 0 246 114.5t92 276.5v485h199v-821q0 -45 45 -45h84v-170h-191q-131 0 -131 115v39l2 59h-4q-39 -90 -140 -164t-241 -74q-176 0 -264 97.5t-88 300.5z" />
<glyph unicode="v" horiz-adv-x="1089" d="M430 0l-319 825q-16 41 -64 41h-20v170h102q70 0 102.5 -21.5t55.5 -82.5l223 -596l37 -135h4q16 78 37 135l221 596q23 61 56.5 82.5t101.5 21.5h96v-170h-21q-51 0 -67 -41l-316 -825h-229z" />
<glyph unicode="w" horiz-adv-x="1708" d="M385 0l-272 825q-12 41 -64 41h-29v170h125q70 0 102 -22.5t52 -87.5l184 -617l25 -110h4q12 57 29 110l223 723h182l225 -723l27 -110h4q8 57 25 110l182 617q20 66 53 88t103 22h123v-170h-29q-51 0 -64 -41l-272 -825h-223l-215 666l-29 112h-4q-12 -59 -29 -112 l-213 -666h-225z" />
<glyph unicode="x" horiz-adv-x="1011" d="M31 0l350 532l-199 295q-27 39 -88 39h-57v170h127q72 0 105.5 -19.5t74.5 -84.5l127 -201l33 -65h4q18 39 35 65l125 201q39 66 72.5 85t107.5 19h129v-170h-59q-63 0 -89 -37l-198 -297l350 -532h-223l-219 338l-31 55h-4q-16 -31 -33 -55l-215 -338h-225z" />
<glyph unicode="y" horiz-adv-x="1118" d="M92 -184q0 -2 18.5 -19.5t56.5 -36t77 -18.5q119 0 182 149l47 113l-354 821q-18 41 -66 41h-24v170h116q63 0 93 -21.5t55 -82.5l235 -584q20 -53 37 -125h4q14 72 35 125l215 584q23 61 55.5 82.5t96.5 21.5h119v-170h-27q-47 0 -66 -41l-409 -1011 q-47 -119 -135 -181.5t-199 -62.5q-68 0 -129.5 25.5t-87.5 52.5l-27 24z" />
<glyph unicode="z" horiz-adv-x="1034" d="M68 0v115l530 655l86 96v4q-33 -4 -100 -4h-283q-45 0 -45 -45v-69h-182v153q0 70 30.5 100.5t100.5 30.5h741v-114l-532 -658l-86 -94v-4q33 4 100 4h332q45 0 45 45v70h180v-154q0 -70 -30.5 -100.5t-100.5 -30.5h-786z" />
<glyph unicode="{" horiz-adv-x="694" d="M233 158v196q0 59 -18 103.5t-43 66t-50.5 34.5t-43.5 15l-19 5v176q6 0 18.5 2t42.5 16t53.5 36.5t41.5 68t18 104.5v172q0 92 26 160.5t61.5 104.5t86 58.5t86 27.5t72.5 5l47 -2v-151h-28q-27 0 -50.5 -7.5t-55.5 -26.5t-51 -65.5t-19 -115.5v-211q0 -57 -17.5 -104.5 t-42 -75t-48.5 -47t-42 -27.5l-16 -6v-4q6 -2 17 -6.5t40 -25t50.5 -47t40 -74.5t18.5 -107v-236q0 -70 19 -116t51 -65.5t55.5 -26.5t50.5 -7h28v-152q-18 -4 -47 -4q-37 0 -72.5 5.5t-86 28t-86 58t-61.5 105.5t-26 162z" />
<glyph unicode="|" horiz-adv-x="612" d="M219 -326v1948h174v-1948h-174z" />
<glyph unicode="}" horiz-adv-x="694" d="M82 -45h29q27 0 50 7t55 26.5t51.5 65.5t19.5 116v236q0 59 17.5 107t41 75.5t48 46t40.5 24.5l19 7v4q-6 2 -17.5 7t-40 25.5t-50 47t-40 74.5t-18.5 106v211q0 70 -19.5 116t-51.5 65t-55.5 26.5t-49.5 7.5h-29v151q18 2 47 2q37 0 73 -5t86 -27.5t86 -58.5 t61.5 -104.5t25.5 -160.5v-172q0 -172 137 -219l37 -8v-176q-6 0 -18.5 -2.5t-42 -16.5t-53 -35.5t-42 -65.5t-18.5 -104v-196q0 -92 -25.5 -162t-61.5 -105.5t-86 -58t-86 -28t-73 -5.5l-47 4v152z" />
<glyph unicode="~" d="M127 418q0 174 74.5 260t212.5 86q72 0 130 -32t89 -68.5t76 -68.5t96 -32q74 0 105.5 57.5t31.5 135.5h162q0 -346 -285 -346q-72 0 -130 30.5t-89 68.5t-77 68.5t-97 30.5q-72 0 -104.5 -57t-32.5 -133h-162z" />
<glyph unicode="&#xa1;" horiz-adv-x="643" d="M219 838v198h203v-198h-203zM219 -410l14 1049h179l12 -1049h-205z" />
<glyph unicode="&#xa2;" horiz-adv-x="1157" d="M530 -78v228q-193 27 -305 187.5t-112 385.5q0 227 112.5 388t304.5 187v226h150v-226q129 -20 224 -103t147 -214l-181 -70q-84 203 -258 203q-139 0 -218 -109.5t-79 -281.5q0 -176 78 -282.5t219 -106.5q176 0 258 203l181 -72q-51 -125 -145.5 -213t-225.5 -102v-228 h-150z" />
<glyph unicode="&#xa3;" horiz-adv-x="1196" d="M102 0v176h125v477h-90v144h90v278q0 170 126 282.5t319 112.5q186 0 332 -120l10 -11l-117 -141q-98 88 -223 88q-111 0 -176.5 -62.5t-65.5 -156.5v-270h377v-144h-377v-477h442q45 0 46 45v92h188v-182q0 -70 -32 -100.5t-101 -30.5h-873z" />
<glyph unicode="&#xa5;" horiz-adv-x="1257" d="M197 418v129h329v84l-57 90h-276v129h192v4l-229 371q-29 45 -93 45h-32v176h90q76 0 117 -21.5t81 -89.5l220 -364l88 -160h4q41 80 88 160l217 364q41 70 82 90.5t119 20.5h90v-176h-35q-63 0 -92 -45l-228 -371v-4h187v-129h-273l-55 -90v-84h328v-129h-328v-418h-205 v418h-329z" />
<glyph unicode="&#xa7;" horiz-adv-x="940" d="M311 227l-143 799q-12 47 -12 94q0 154 104.5 252t282.5 98q78 0 150.5 -26.5t105.5 -50.5l32 -27l-94 -131q-82 70 -194 70q-96 0 -157.5 -53.5t-61.5 -153.5q0 -37 12 -82l139 -789h-164zM125 -23l90 138q84 -76 199 -76q94 0 155.5 56.5t61.5 158.5q0 41 -13 92 l-135 770h162l143 -799q10 -55 11 -92q0 -156 -104.5 -254t-280.5 -98q-80 0 -152 26.5t-104 51.5z" />
<glyph unicode="&#xa8;" horiz-adv-x="1026" d="M629 1599v207h149v-207h-149zM291 1599v207h151v-207h-151z" />
<glyph unicode="&#xa9;" horiz-adv-x="1611" d="M76 723q0 311 212 529t515 218q305 0 519 -218t214 -529t-214 -529.5t-519 -218.5q-303 0 -515 218.5t-212 529.5zM225 723q0 -256 167 -432t411 -176q248 0 415.5 176t167.5 432t-167.5 432t-415.5 176q-244 0 -411 -176t-167 -432zM414 721q0 168 111.5 288.5 t291.5 120.5q195 0 311 -165l23 -37l-125 -68q-8 14 -23.5 36t-67.5 57.5t-112 35.5q-117 0 -185.5 -79t-68.5 -189q0 -115 68 -191.5t186 -76.5q59 0 110.5 32.5t72.5 63.5l20 33l125 -68q-4 -8 -12.5 -21.5t-38 -49t-64.5 -62.5t-94 -48.5t-125 -21.5q-180 0 -291.5 120 t-111.5 290z" />
<glyph unicode="&#xaa;" horiz-adv-x="849" d="M336 784q-92 0 -157.5 54.5t-65.5 148.5q0 219 376 219h29q-2 76 -30.5 105.5t-94.5 29.5q-86 0 -86 -34v-39h-143v82q0 35 26.5 60.5t66.5 36.5t74 15t64 4q150 0 210.5 -68.5t60.5 -189.5v-258q0 -23 20 -22h57v-131h-118q-86 0 -95 75l-2 21h-4l-6 -11.5t-20.5 -26.5 t-37 -33.5t-54 -26t-70.5 -11.5zM367 905q68 0 107.5 57.5t43.5 139.5h-20q-233 0 -234 -109q0 -37 27 -62.5t76 -25.5zM111 543v116h639v-116h-639z" />
<glyph unicode="&#xab;" horiz-adv-x="1161" d="M498 578l336 421h198l-336 -421l336 -420h-198zM422 158l-336 420l336 421h199l-336 -421l336 -420h-199z" />
<glyph unicode="&#xac;" d="M139 696v160h977v-547h-166v387h-811z" />
<glyph unicode="&#xad;" horiz-adv-x="882" d="M143 496v176h598v-176h-598z" />
<glyph unicode="&#xae;" horiz-adv-x="1611" d="M76 723q0 311 212 529t515 218q305 0 519 -218t214 -529t-214 -529.5t-519 -218.5q-303 0 -515 218.5t-212 529.5zM225 723q0 -256 167 -432t411 -176q248 0 415.5 176t167.5 432t-167.5 432t-415.5 176q-244 0 -411 -176t-167 -432zM553 340v661h-70v111h367 q111 0 177.5 -64.5t66.5 -170.5q0 -82 -43 -136.5t-99 -68.5v-4q25 -6 43 -41l80 -154q16 -27 49 -27h23v-106h-78q-47 0 -69.5 10t-41.5 47l-106 203q-20 39 -70 39h-84v-299h-145zM698 745h123q57 0 91 35t34 97q0 59 -33.5 91.5t-91.5 32.5h-123v-256z" />
<glyph unicode="&#xaf;" horiz-adv-x="950" d="M221 1606v139h520v-139h-520z" />
<glyph unicode="&#x2c9;" horiz-adv-x="950" d="M221 1606v139h520v-139h-520z" />
<glyph unicode="&#xb0;" horiz-adv-x="813" d="M405.5 864q-129.5 0 -219.5 88t-90 215q0 125 90 214t219.5 89t220.5 -89t91 -214t-91 -214t-220.5 -89zM405.5 1016q63.5 0 107.5 44t44 107.5t-44 108.5t-107.5 45t-107.5 -45t-44 -108.5t44 -107.5t107.5 -44z" />
<glyph unicode="&#xb1;" d="M86 504v160h459v503h168v-503h456v-160h-456v-504h-168v504h-459zM119 -195h1018v-159h-1018v159z" />
<glyph unicode="&#xb2;" horiz-adv-x="866" d="M203 545q-55 0 -77 24.5t-22 96.5q0 63 20.5 113t63.5 90t78 63.5t92 56.5q63 35 96 57.5t63 63.5t30 88q0 53 -37 87t-98 34q-51 0 -85 -21.5t-34 -50.5v-49h-146v90q0 84 88.5 130t178.5 46q129 0 210 -73.5t81 -192.5q0 -63 -21.5 -113.5t-69 -90.5t-80 -61.5 t-96.5 -55.5q-57 -33 -88 -53.5t-58.5 -55.5t-27.5 -74q0 -12 19 -12h305q12 0 12 14v68h143v-125q0 -94 -94 -94h-446z" />
<glyph unicode="&#xb3;" horiz-adv-x="866" d="M426 528q-86 0 -166 41t-117 82l-37 41l109 101l28 -33q17 -20 72.5 -53t110.5 -33q63 0 109.5 42t46.5 105.5t-47.5 100t-118.5 36.5h-70l-24 91l172 217l45 47v4q-35 -4 -70 -4h-156q-18 0 -18 -21v-53h-145v109q0 55 20 76.5t78 21.5h475v-105l-213 -260 q94 -12 161.5 -84.5t67.5 -177.5q0 -127 -92 -209t-221 -82z" />
<glyph unicode="&#xb4;" horiz-adv-x="794" d="M244 1546l149 260h201l-195 -260h-155z" />
<glyph unicode="&#xb5;" horiz-adv-x="1271" d="M41 866v170h195q70 0 101.5 -30.5t31.5 -96.5v-491q0 -125 40 -191.5t152 -66.5q154 0 246 114.5t92 276.5v485h199v-821q0 -45 45 -45h84v-170h-191q-131 0 -131 115v39l2 59h-4q-4 -10 -12 -25.5t-40 -56.5t-72 -72.5t-108.5 -57.5t-148.5 -26q-131 2 -186 64h-4 q14 -100 14 -160v-289h-176v1231q0 45 -45 45h-84z" />
<glyph unicode="&#x3bc;" horiz-adv-x="1271" d="M41 866v170h195q70 0 101.5 -30.5t31.5 -96.5v-491q0 -125 40 -191.5t152 -66.5q154 0 246 114.5t92 276.5v485h199v-821q0 -45 45 -45h84v-170h-191q-131 0 -131 115v39l2 59h-4q-4 -10 -12 -25.5t-40 -56.5t-72 -72.5t-108.5 -57.5t-148.5 -26q-131 2 -186 64h-4 q14 -100 14 -160v-289h-176v1231q0 45 -45 45h-84z" />
<glyph unicode="&#xb6;" horiz-adv-x="1226" d="M569 -102v596q-199 0 -342 138t-143 338.5t142.5 338t340.5 137.5h557v-176h-401v-1372h-154zM850 -102v1255h151v-1255h-151z" />
<glyph unicode="&#xb7;" horiz-adv-x="491" d="M143 489v211h203v-211h-203z" />
<glyph unicode="&#x2219;" horiz-adv-x="491" d="M143 489v211h203v-211h-203z" />
<glyph unicode="&#xb8;" horiz-adv-x="851" d="M328 47l100 -20v-17l-22 -112q63 -8 104 -47t41 -103q0 -88 -59.5 -130t-149.5 -42l-113 14v119q41 -14 88 -14q96 0 96.5 63.5t-108.5 63.5l-35 -2z" />
<glyph unicode="&#xb9;" horiz-adv-x="866" d="M156 545v137h190v494l2 67h-4q-8 -20 -25 -35l-81 -78l-95 101l224 215h135v-764h188v-137h-534z" />
<glyph unicode="&#xba;" horiz-adv-x="933" d="M466.5 786q-147.5 0 -248.5 97.5t-101 246.5q0 145 101 241.5t247 96.5q147 0 249.5 -96t102.5 -242q0 -150 -101.5 -247t-249 -97zM467 918q84 0 142.5 60t58.5 152q0 90 -58.5 148.5t-142.5 58.5q-86 0 -144.5 -58t-58.5 -149q0 -92 58.5 -152t144.5 -60zM150 543v116 h638v-116h-638z" />
<glyph unicode="&#xbb;" horiz-adv-x="1161" d="M541 158l336 420l-336 421h198l336 -421l-336 -420h-198zM127 158l336 420l-336 421h199l336 -421l-336 -420h-199z" />
<glyph unicode="&#xbc;" horiz-adv-x="1875" d="M582 0l587 1446h164l-585 -1446h-166zM160 545v137h190v494l2 67h-4q-10 -20 -24 -35l-82 -78l-95 101l222 215h137v-764h182v-137h-528zM1059 231v95l391 577h178v-534h135v-138h-135v-231h-155v231h-414zM1227 367q27 2 41 2h207v280l2 74h-4q-12 -29 -31 -55 l-187 -265l-28 -32v-4z" />
<glyph unicode="&#xbd;" horiz-adv-x="1875" d="M559 0l588 1446h164l-588 -1446h-164zM160 545v137h190v494l2 67h-4q-10 -20 -24 -35l-82 -78l-95 101l222 215h137v-764h182v-137h-528zM1112 121q0 63 20.5 113.5t63.5 91.5t77 63.5t93 56.5q61 35 94 56.5t63.5 62.5t30.5 88q0 55 -37.5 89t-99.5 34q-49 0 -83 -21.5 t-34 -49.5v-50h-145v88q0 84 88 130.5t178 46.5q129 0 210 -74t81 -191q0 -63 -21.5 -113t-69.5 -92t-79 -61.5t-96 -56.5q-59 -33 -90 -53.5t-58.5 -55.5t-27.5 -73q0 -12 20 -13h303q12 0 13 15v69h145v-125q0 -51 -22.5 -73.5t-73.5 -22.5h-447q-55 0 -75.5 24.5 t-20.5 96.5z" />
<glyph unicode="&#xbe;" horiz-adv-x="1875" d="M578 0l587 1446h164l-586 -1446h-165zM442 528q-86 0 -165.5 41t-116.5 82l-37 41l106 101l29 -33q18 -20 73.5 -53t110.5 -33q63 0 109.5 42t46.5 105.5t-47 100t-119 36.5h-72l-24 91l174 217l43 47v4q-33 -4 -68 -4h-155q-18 0 -19 -21v-53h-145v109q0 55 20.5 76.5 t75.5 21.5h477v-105l-215 -260q94 -12 163 -84.5t69 -177.5q0 -127 -92.5 -209t-221.5 -82zM1059 231v95l391 577h178v-534h135v-138h-135v-231h-155v231h-414zM1227 367q27 2 41 2h207v280l2 74h-4q-12 -29 -31 -55l-187 -265l-28 -32v-4z" />
<glyph unicode="&#xbf;" horiz-adv-x="927" d="M424 838v198h203v-198h-203zM66 -57q0 94 36.5 168.5t90 125t107.5 96.5t91 104.5t37 125.5v76h193v-88q0 -86 -36 -157.5t-86 -120.5l-102 -93q-51 -45 -87 -101t-36 -120q0 -86 67 -145.5t167 -59.5q57 0 115.5 22.5t89.5 43.5l28 22l109 -141q-6 -6 -16.5 -14.5 t-45 -31t-73.5 -39.5t-98.5 -31.5t-122.5 -14.5q-178 0 -303 103.5t-125 269.5z" />
<glyph unicode="&#xc0;" horiz-adv-x="1361" d="M25 0v176h28q53 0 68 45l452 1225h215l453 -1225q14 -45 68 -45h30v-176h-114q-76 0 -110 23.5t-58 95.5l-109 297h-532l-109 -297q-27 -72 -60.5 -95.5t-109.5 -23.5h-112zM465 588h432l-158 440l-57 203h-4q-29 -127 -55 -203zM602 1546l-194 260h200l150 -260h-156z " />
<glyph unicode="&#xc1;" horiz-adv-x="1361" d="M25 0v176h28q53 0 68 45l452 1225h215l453 -1225q14 -45 68 -45h30v-176h-114q-76 0 -110 23.5t-58 95.5l-109 297h-532l-109 -297q-27 -72 -60.5 -95.5t-109.5 -23.5h-112zM465 588h432l-158 440l-57 203h-4q-29 -127 -55 -203zM602 1546l150 260h200l-194 -260h-156z " />
<glyph unicode="&#xc2;" horiz-adv-x="1361" d="M25 0v176h28q53 0 68 45l452 1225h215l453 -1225q14 -45 68 -45h30v-176h-114q-76 0 -110 23.5t-58 95.5l-109 297h-532l-109 -297q-27 -72 -60.5 -95.5t-109.5 -23.5h-112zM465 588h432l-158 440l-57 203h-4q-29 -127 -55 -203zM412 1546l178 260h182l180 -260h-161 l-107 164h-4l-109 -164h-159z" />
<glyph unicode="&#xc3;" horiz-adv-x="1361" d="M25 0v176h28q53 0 68 45l452 1225h215l453 -1225q14 -45 68 -45h30v-176h-114q-76 0 -110 23.5t-58 95.5l-109 297h-532l-109 -297q-27 -72 -60.5 -95.5t-109.5 -23.5h-112zM465 588h432l-158 440l-57 203h-4q-29 -127 -55 -203zM334 1548q0 260 211 260q59 0 106 -34.5 t83 -69.5t73 -35q43 0 62.5 40t19.5 93h135q0 -260 -211 -260q-59 0 -105 35t-83 69.5t-74 34.5q-43 0 -62.5 -39.5t-19.5 -93.5h-135z" />
<glyph unicode="&#xc4;" horiz-adv-x="1361" d="M25 0v176h28q53 0 68 45l452 1225h215l453 -1225q14 -45 68 -45h30v-176h-114q-76 0 -110 23.5t-58 95.5l-109 297h-532l-109 -297q-27 -72 -60.5 -95.5t-109.5 -23.5h-112zM465 588h432l-158 440l-57 203h-4q-29 -127 -55 -203zM776 1599v207h150v-207h-150zM438 1599 v207h152v-207h-152z" />
<glyph unicode="&#xc5;" horiz-adv-x="1361" d="M25 0v176h28q53 0 68 45l452 1225h215l453 -1225q14 -45 68 -45h30v-176h-114q-76 0 -110 23.5t-58 95.5l-109 297h-532l-109 -297q-27 -72 -60.5 -95.5t-109.5 -23.5h-112zM465 588h432l-158 440l-57 203h-4q-29 -127 -55 -203zM682 1522q-70 0 -118 42t-48 109 q0 70 48 112t118 42q68 0 117 -42t49 -112q0 -68 -49 -109.5t-117 -41.5zM682 1606q31 0 50.5 19.5t19.5 47.5q0 33 -19.5 52.5t-50.5 19.5t-50.5 -19.5t-19.5 -52.5q0 -29 19.5 -48t50.5 -19z" />
<glyph unicode="&#xc6;" horiz-adv-x="1755" d="M25 0v176h22q51 0 70 45l485 1225h918q70 0 100.5 -31t30.5 -100v-182h-187v92q0 45 -45 45h-399v-453h493v-176h-493v-420q0 -45 53 -45h402q45 0 45 45v92h188v-182q0 -70 -31.5 -100.5t-101.5 -30.5h-617q-80 0 -112.5 27.5t-32.5 103.5v510h-326l-194 -522 q-27 -72 -60.5 -95.5t-109.5 -23.5h-98zM555 817h258v453h-90z" />
<glyph unicode="&#xc7;" horiz-adv-x="1435" d="M70 735q0 313 207.5 524t517.5 211q80 0 168 -17t175 -52t143 -98.5t56 -145.5v-141h-188v82q0 84 -112.5 133t-237.5 49q-221 0 -368.5 -151.5t-147.5 -393.5q0 -238 148.5 -402.5t367.5 -164.5q129 0 244.5 49t166.5 98l52 47l110 -145q-8 -10 -23.5 -25.5t-67.5 -55.5 t-111.5 -71.5t-154.5 -59.5t-196 -30l-16 -77q66 -8 106.5 -47t40.5 -103q0 -88 -60.5 -130t-148.5 -42q-29 0 -57.5 3t-42.5 7l-14 4v119q41 -14 88 -14q96 0 96 63.5t-106 63.5l-37 -2l41 160q-287 31 -463 242.5t-176 512.5z" />
<glyph unicode="&#xc8;" horiz-adv-x="1163" d="M211 131v1139h-133v176h850q70 0 100.5 -31t30.5 -100v-182h-187v92q0 45 -45 45h-411v-453h506v-176h-506v-420q0 -45 45 -45h422q45 0 45 45v92h188v-182q0 -70 -30.5 -100.5t-100.5 -30.5h-643q-70 0 -100.5 30.5t-30.5 100.5zM524 1546l-194 260h200l150 -260h-156z " />
<glyph unicode="&#xc9;" horiz-adv-x="1163" d="M211 131v1139h-133v176h850q70 0 100.5 -31t30.5 -100v-182h-187v92q0 45 -45 45h-411v-453h506v-176h-506v-420q0 -45 45 -45h422q45 0 45 45v92h188v-182q0 -70 -30.5 -100.5t-100.5 -30.5h-643q-70 0 -100.5 30.5t-30.5 100.5zM524 1546l150 260h200l-194 -260h-156z " />
<glyph unicode="&#xca;" horiz-adv-x="1163" d="M211 131v1139h-133v176h850q70 0 100.5 -31t30.5 -100v-182h-187v92q0 45 -45 45h-411v-453h506v-176h-506v-420q0 -45 45 -45h422q45 0 45 45v92h188v-182q0 -70 -30.5 -100.5t-100.5 -30.5h-643q-70 0 -100.5 30.5t-30.5 100.5zM336 1546l178 260h182l181 -260h-162 l-107 164h-4l-108 -164h-160z" />
<glyph unicode="&#xcb;" horiz-adv-x="1163" d="M211 131v1139h-133v176h850q70 0 100.5 -31t30.5 -100v-182h-187v92q0 45 -45 45h-411v-453h506v-176h-506v-420q0 -45 45 -45h422q45 0 45 45v92h188v-182q0 -70 -30.5 -100.5t-100.5 -30.5h-643q-70 0 -100.5 30.5t-30.5 100.5zM700 1599v207h150v-207h-150zM362 1599 v207h152v-207h-152z" />
<glyph unicode="&#xcc;" horiz-adv-x="649" d="M86 0v176h141v1094h-141v176h477v-176h-141v-1094h141v-176h-477zM244 1546l-195 260h201l149 -260h-155z" />
<glyph unicode="&#xcd;" horiz-adv-x="649" d="M86 0v176h141v1094h-141v176h477v-176h-141v-1094h141v-176h-477zM244 1546l149 260h201l-195 -260h-155z" />
<glyph unicode="&#xce;" horiz-adv-x="649" d="M86 0v176h141v1094h-141v176h477v-176h-141v-1094h141v-176h-477zM53 1546l178 260h183l180 -260h-162l-106 164h-4l-109 -164h-160z" />
<glyph unicode="&#xcf;" horiz-adv-x="649" d="M86 0v176h141v1094h-141v176h477v-176h-141v-1094h141v-176h-477zM418 1599v207h149v-207h-149zM80 1599v207h151v-207h-151z" />
<glyph unicode="&#xd0;" horiz-adv-x="1464" d="M211 131v508h-100v168h100v463h-133v176h586q334 0 532.5 -191.5t198.5 -529.5q0 -340 -199 -532.5t-532 -192.5h-322q-70 0 -100.5 30.5t-30.5 100.5zM416 221q0 -45 45 -45h188q246 0 389.5 143.5t143.5 405.5q0 260 -144.5 402.5t-388.5 142.5h-233v-463h295v-168 h-295v-418z" />
<glyph unicode="&#xd1;" horiz-adv-x="1566" d="M78 0v176h88q45 0 45 45v1225h186l643 -916l121 -196h4q-14 115 -14 196v785q0 70 31.5 100.5t101.5 30.5h205v-176h-88q-45 0 -45 -45v-1225h-185l-645 915l-118 197h-5q12 -117 13 -197v-784q0 -70 -31 -100.5t-100 -30.5h-207zM457 1548q0 260 211 260q59 0 106 -34.5 t83 -69.5t73 -35q43 0 62.5 40t19.5 93h135q0 -260 -211 -260q-59 0 -105.5 35t-83 69.5t-73.5 34.5q-43 0 -62.5 -39.5t-19.5 -93.5h-135z" />
<glyph unicode="&#xd2;" horiz-adv-x="1624" d="M70 733q0 311 214 524t527 213t528 -213t215 -524q0 -319 -215 -538.5t-528 -219.5t-527 219.5t-214 538.5zM283 733q0 -238 153.5 -401.5t374.5 -163.5t375.5 164t154.5 401q0 231 -154.5 389t-375.5 158t-374.5 -158t-153.5 -389zM725 1546l-195 260h201l150 -260h-156 z" />
<glyph unicode="&#xd3;" horiz-adv-x="1624" d="M70 733q0 311 214 524t527 213t528 -213t215 -524q0 -319 -215 -538.5t-528 -219.5t-527 219.5t-214 538.5zM283 733q0 -238 153.5 -401.5t374.5 -163.5t375.5 164t154.5 401q0 231 -154.5 389t-375.5 158t-374.5 -158t-153.5 -389zM727 1546l150 260h200l-194 -260h-156 z" />
<glyph unicode="&#xd4;" horiz-adv-x="1624" d="M70 733q0 311 214 524t527 213t528 -213t215 -524q0 -319 -215 -538.5t-528 -219.5t-527 219.5t-214 538.5zM283 733q0 -238 153.5 -401.5t374.5 -163.5t375.5 164t154.5 401q0 231 -154.5 389t-375.5 158t-374.5 -158t-153.5 -389zM537 1546l178 260h182l180 -260h-162 l-106 164h-4l-109 -164h-159z" />
<glyph unicode="&#xd5;" horiz-adv-x="1624" d="M70 733q0 311 214 524t527 213t528 -213t215 -524q0 -319 -215 -538.5t-528 -219.5t-527 219.5t-214 538.5zM283 733q0 -238 153.5 -401.5t374.5 -163.5t375.5 164t154.5 401q0 231 -154.5 389t-375.5 158t-374.5 -158t-153.5 -389zM459 1548q0 260 211 260 q59 0 106 -34.5t83 -69.5t73 -35q43 0 62.5 40t19.5 93h135q0 -260 -211 -260q-59 0 -105.5 35t-83 69.5t-73.5 34.5q-43 0 -62.5 -39.5t-19.5 -93.5h-135z" />
<glyph unicode="&#xd6;" horiz-adv-x="1624" d="M70 733q0 311 214 524t527 213t528 -213t215 -524q0 -319 -215 -538.5t-528 -219.5t-527 219.5t-214 538.5zM283 733q0 -238 153.5 -401.5t374.5 -163.5t375.5 164t154.5 401q0 231 -154.5 389t-375.5 158t-374.5 -158t-153.5 -389zM901 1599v207h150v-207h-150z M563 1599v207h152v-207h-152z" />
<glyph unicode="&#xd7;" d="M96 113l422 471l-422 471l113 112l418 -467l420 467l112 -112l-424 -471l424 -471l-112 -113l-420 465l-418 -465z" />
<glyph unicode="&#xd8;" horiz-adv-x="1628" d="M229 18l99 136q-121 106 -188.5 255.5t-67.5 323.5q0 311 215 524t526 213q209 0 385 -104l96 133l101 -69l-95 -134q119 -104 187.5 -250.5t68.5 -312.5q0 -319 -215 -538.5t-528 -219.5q-213 0 -385 109l-96 -135zM449 322l634 882q-129 76 -270 76 q-221 0 -374.5 -157.5t-153.5 -389.5q0 -243 164 -411zM543 244q123 -76 270 -76q221 0 375.5 164t154.5 401q0 233 -165 393z" />
<glyph unicode="&#xd9;" horiz-adv-x="1490" d="M195 506v719q0 45 -45 45h-89v176h207q70 0 100.5 -31t30.5 -100v-801q0 -162 94.5 -254t252 -92t252 93t94.5 255v799q0 70 31.5 100.5t101.5 30.5h205v-176h-89q-45 0 -45 -45v-719q0 -238 -151.5 -384.5t-396.5 -146.5q-248 0 -400.5 146.5t-152.5 384.5zM668 1546 l-195 260h201l149 -260h-155z" />
<glyph unicode="&#xda;" horiz-adv-x="1490" d="M195 506v719q0 45 -45 45h-89v176h207q70 0 100.5 -31t30.5 -100v-801q0 -162 94.5 -254t252 -92t252 93t94.5 255v799q0 70 31.5 100.5t101.5 30.5h205v-176h-89q-45 0 -45 -45v-719q0 -238 -151.5 -384.5t-396.5 -146.5q-248 0 -400.5 146.5t-152.5 384.5zM668 1546 l149 260h201l-195 -260h-155z" />
<glyph unicode="&#xdb;" horiz-adv-x="1490" d="M195 506v719q0 45 -45 45h-89v176h207q70 0 100.5 -31t30.5 -100v-801q0 -162 94.5 -254t252 -92t252 93t94.5 255v799q0 70 31.5 100.5t101.5 30.5h205v-176h-89q-45 0 -45 -45v-719q0 -238 -151.5 -384.5t-396.5 -146.5q-248 0 -400.5 146.5t-152.5 384.5zM477 1546 l178 260h183l180 -260h-162l-106 164h-5l-108 -164h-160z" />
<glyph unicode="&#xdc;" horiz-adv-x="1490" d="M195 506v719q0 45 -45 45h-89v176h207q70 0 100.5 -31t30.5 -100v-801q0 -162 94.5 -254t252 -92t252 93t94.5 255v799q0 70 31.5 100.5t101.5 30.5h205v-176h-89q-45 0 -45 -45v-719q0 -238 -151.5 -384.5t-396.5 -146.5q-248 0 -400.5 146.5t-152.5 384.5zM842 1599 v207h149v-207h-149zM504 1599v207h151v-207h-151z" />
<glyph unicode="&#xdd;" horiz-adv-x="1234" d="M516 0v631l-366 588q-31 51 -89 51h-41v176h95q76 0 114.5 -20.5t79.5 -90.5l219 -364l88 -162h5q39 82 88 162l217 364q41 70 79.5 90.5t114.5 20.5h94v-176h-38q-59 0 -91 -51l-364 -588v-631h-205zM539 1546l149 260h201l-195 -260h-155z" />
<glyph unicode="&#xde;" horiz-adv-x="1220" d="M211 0v1225q0 45 -45 45h-88v176h207q70 0 100.5 -31t30.5 -100v-115h299q201 0 326.5 -124t125.5 -328.5t-127 -331.5t-327 -127h-297v-289h-205zM416 465h266q127 0 200.5 75.5t73.5 207.5q0 129 -72.5 202.5t-199.5 73.5h-268v-559z" />
<glyph unicode="&#xdf;" horiz-adv-x="1183" d="M39 0v170h78q45 0 45 45v870q0 180 131 282.5t311 102.5q168 0 278.5 -95t110.5 -234q0 -66 -31.5 -122t-70.5 -90t-71 -77t-32 -82q0 -37 38 -76t91.5 -76.5t107.5 -81.5t92 -109t38 -140q0 -147 -102.5 -229.5t-247.5 -82.5q-182 0 -305 97l-6 6l55 153 q104 -84 231 -84q74 0 123 36t49 112q0 47 -37.5 92t-91.5 84l-107 79q-54 40 -92 95t-38 119q0 55 32.5 107.5t70.5 87t71 83t33 97.5q0 66 -51.5 112.5t-143.5 46.5q-98 0 -168 -59t-70 -168v-940q0 -70 -31.5 -100.5t-101.5 -30.5h-188z" />
<glyph unicode="&#xe0;" horiz-adv-x="1114" d="M76 291q0 80 32.5 142.5t91 98t122 60t141.5 36t129 14.5t108 3h45v10q0 135 -53 191.5t-176 56.5q-57 0 -113.5 -17.5t-56.5 -62.5v-59h-186v102q0 59 40 101.5t103.5 61t114.5 25.5t100 7q236 0 331 -107.5t95 -298.5v-440q0 -45 45 -45h84v-170h-186q-129 0 -129 119 l4 61h-4q-4 -8 -10.5 -22.5t-34 -49t-62.5 -61.5t-94 -49.5t-129 -22.5q-143 0 -247.5 84.5t-104.5 231.5zM276 301q0 -68 51.5 -117t143.5 -49q119 0 198 103.5t79 226.5v35h-52q-76 0 -132 -5.5t-131 -22.5t-116 -60t-41 -111zM463 1186l-195 260h201l149 -260h-155z" />
<glyph unicode="&#xe1;" horiz-adv-x="1114" d="M76 291q0 80 32.5 142.5t91 98t122 60t141.5 36t129 14.5t108 3h45v10q0 135 -53 191.5t-176 56.5q-57 0 -113.5 -17.5t-56.5 -62.5v-59h-186v102q0 59 40 101.5t103.5 61t114.5 25.5t100 7q236 0 331 -107.5t95 -298.5v-440q0 -45 45 -45h84v-170h-186q-129 0 -129 119 l4 61h-4q-4 -8 -10.5 -22.5t-34 -49t-62.5 -61.5t-94 -49.5t-129 -22.5q-143 0 -247.5 84.5t-104.5 231.5zM276 301q0 -68 51.5 -117t143.5 -49q119 0 198 103.5t79 226.5v35h-52q-76 0 -132 -5.5t-131 -22.5t-116 -60t-41 -111zM463 1186l149 260h201l-195 -260h-155z" />
<glyph unicode="&#xe2;" horiz-adv-x="1114" d="M76 291q0 80 32.5 142.5t91 98t122 60t141.5 36t129 14.5t108 3h45v10q0 135 -53 191.5t-176 56.5q-57 0 -113.5 -17.5t-56.5 -62.5v-59h-186v102q0 59 40 101.5t103.5 61t114.5 25.5t100 7q236 0 331 -107.5t95 -298.5v-440q0 -45 45 -45h84v-170h-186q-129 0 -129 119 l4 61h-4q-4 -8 -10.5 -22.5t-34 -49t-62.5 -61.5t-94 -49.5t-129 -22.5q-143 0 -247.5 84.5t-104.5 231.5zM276 301q0 -68 51.5 -117t143.5 -49q119 0 198 103.5t79 226.5v35h-52q-76 0 -132 -5.5t-131 -22.5t-116 -60t-41 -111zM274 1186l179 260h182l180 -260h-162 l-106 164h-4l-109 -164h-160z" />
<glyph unicode="&#xe3;" horiz-adv-x="1114" d="M76 291q0 80 32.5 142.5t91 98t122 60t141.5 36t129 14.5t108 3h45v10q0 135 -53 191.5t-176 56.5q-57 0 -113.5 -17.5t-56.5 -62.5v-59h-186v102q0 59 40 101.5t103.5 61t114.5 25.5t100 7q236 0 331 -107.5t95 -298.5v-440q0 -45 45 -45h84v-170h-186q-129 0 -129 119 l4 61h-4q-4 -8 -10.5 -22.5t-34 -49t-62.5 -61.5t-94 -49.5t-129 -22.5q-143 0 -247.5 84.5t-104.5 231.5zM276 301q0 -68 51.5 -117t143.5 -49q119 0 198 103.5t79 226.5v35h-52q-76 0 -132 -5.5t-131 -22.5t-116 -60t-41 -111zM197 1188q0 260 211 260q59 0 106 -35 t83 -69.5t73 -34.5q43 0 62.5 40t19.5 93h135q0 -260 -211 -260q-59 0 -105.5 34.5t-83 69.5t-73.5 35q-43 0 -62.5 -40t-19.5 -93h-135z" />
<glyph unicode="&#xe4;" horiz-adv-x="1114" d="M76 291q0 80 32.5 142.5t91 98t122 60t141.5 36t129 14.5t108 3h45v10q0 135 -53 191.5t-176 56.5q-57 0 -113.5 -17.5t-56.5 -62.5v-59h-186v102q0 59 40 101.5t103.5 61t114.5 25.5t100 7q236 0 331 -107.5t95 -298.5v-440q0 -45 45 -45h84v-170h-186q-129 0 -129 119 l4 61h-4q-4 -8 -10.5 -22.5t-34 -49t-62.5 -61.5t-94 -49.5t-129 -22.5q-143 0 -247.5 84.5t-104.5 231.5zM276 301q0 -68 51.5 -117t143.5 -49q119 0 198 103.5t79 226.5v35h-52q-76 0 -132 -5.5t-131 -22.5t-116 -60t-41 -111zM639 1239v207h149v-207h-149zM301 1239v207 h152v-207h-152z" />
<glyph unicode="&#xe5;" horiz-adv-x="1114" d="M76 291q0 80 32.5 142.5t91 98t122 60t141.5 36t129 14.5t108 3h45v10q0 135 -53 191.5t-176 56.5q-57 0 -113.5 -17.5t-56.5 -62.5v-59h-186v102q0 59 40 101.5t103.5 61t114.5 25.5t100 7q236 0 331 -107.5t95 -298.5v-440q0 -45 45 -45h84v-170h-186q-129 0 -129 119 l4 61h-4q-4 -8 -10.5 -22.5t-34 -49t-62.5 -61.5t-94 -49.5t-129 -22.5q-143 0 -247.5 84.5t-104.5 231.5zM276 301q0 -68 51.5 -117t143.5 -49q119 0 198 103.5t79 226.5v35h-52q-76 0 -132 -5.5t-131 -22.5t-116 -60t-41 -111zM545 1161q-70 0 -118 42t-48 110 q0 70 48 111.5t118 41.5q68 0 117 -42t49 -111q0 -68 -49 -110t-117 -42zM544.5 1245q30.5 0 50 19.5t19.5 48.5q0 33 -19.5 52t-50 19t-50 -19t-19.5 -52q0 -29 19.5 -48.5t50 -19.5z" />
<glyph unicode="&#xe6;" horiz-adv-x="1777" d="M76 291q0 348 618 348h51v18q0 135 -54 190.5t-175 55.5q-59 0 -114.5 -17.5t-55.5 -62.5v-59h-186v102q0 53 33.5 93t89 60.5t114 31t121.5 10.5q272 0 352 -182h4q123 182 369 182q205 0 322.5 -136.5t117.5 -338.5l-4 -92h-741q8 -166 103.5 -256.5t240.5 -90.5 q80 0 155.5 31t110.5 60l37 30l86 -141q-16 -16 -49 -42t-137.5 -68t-212.5 -42q-154 0 -268.5 69t-178.5 192h-4q-10 -29 -32.5 -65t-67.5 -84t-121 -80t-170 -32q-150 0 -252 85.5t-102 230.5zM946 639h537q-4 125 -74 194.5t-170 69.5q-115 0 -194 -69.5t-99 -194.5z M279 301q0 -70 50 -118t144 -48q121 0 198 103.5t77 228.5v27h-97q-372 0 -372 -193z" />
<glyph unicode="&#xe7;" horiz-adv-x="1091" d="M74 518q0 231 155.5 387t401.5 156q53 0 112.5 -11.5t120 -36t100.5 -71.5t40 -108v-107h-181v57q0 51 -62.5 79t-129.5 28q-154 0 -254.5 -103.5t-100.5 -267.5q0 -170 106.5 -269t258.5 -99q174 0 309 131l13 12l86 -141q-6 -6 -17.5 -18.5t-51.5 -43.5t-85 -54.5 t-116.5 -43t-149.5 -19.5l-17 -77q66 -8 107 -47t41 -103q0 -88 -60.5 -130t-148.5 -42q-29 0 -57.5 3t-42.5 7l-15 4v119q41 -14 88 -14q96 0 96.5 63.5t-106.5 63.5l-37 -2l41 166q-199 33 -321.5 179t-122.5 353z" />
<glyph unicode="&#xe8;" horiz-adv-x="1130" d="M74 518q0 244 147.5 393.5t372.5 149.5q211 0 328.5 -137.5t117.5 -348.5l-6 -81h-755q8 -160 110.5 -253.5t245.5 -93.5q80 0 155.5 31t110.5 60l37 30l86 -141q-16 -16 -49 -42t-137.5 -68t-212.5 -42q-244 0 -397.5 155t-153.5 388zM287 639h549q-4 125 -74 194.5 t-170 69.5q-117 0 -199.5 -68.5t-105.5 -195.5zM506 1186l-195 260h201l150 -260h-156z" />
<glyph unicode="&#xe9;" horiz-adv-x="1130" d="M74 518q0 244 147.5 393.5t372.5 149.5q211 0 328.5 -137.5t117.5 -348.5l-6 -81h-755q8 -160 110.5 -253.5t245.5 -93.5q80 0 155.5 31t110.5 60l37 30l86 -141q-16 -16 -49 -42t-137.5 -68t-212.5 -42q-244 0 -397.5 155t-153.5 388zM287 639h549q-4 125 -74 194.5 t-170 69.5q-117 0 -199.5 -68.5t-105.5 -195.5zM508 1186l149 260h201l-194 -260h-156z" />
<glyph unicode="&#xea;" horiz-adv-x="1130" d="M74 518q0 244 147.5 393.5t372.5 149.5q211 0 328.5 -137.5t117.5 -348.5l-6 -81h-755q8 -160 110.5 -253.5t245.5 -93.5q80 0 155.5 31t110.5 60l37 30l86 -141q-16 -16 -49 -42t-137.5 -68t-212.5 -42q-244 0 -397.5 155t-153.5 388zM287 639h549q-4 125 -74 194.5 t-170 69.5q-117 0 -199.5 -68.5t-105.5 -195.5zM317 1186l179 260h182l180 -260h-162l-106 164h-4l-109 -164h-160z" />
<glyph unicode="&#xeb;" horiz-adv-x="1130" d="M74 518q0 244 147.5 393.5t372.5 149.5q211 0 328.5 -137.5t117.5 -348.5l-6 -81h-755q8 -160 110.5 -253.5t245.5 -93.5q80 0 155.5 31t110.5 60l37 30l86 -141q-16 -16 -49 -42t-137.5 -68t-212.5 -42q-244 0 -397.5 155t-153.5 388zM287 639h549q-4 125 -74 194.5 t-170 69.5q-117 0 -199.5 -68.5t-105.5 -195.5zM682 1239v207h149v-207h-149zM344 1239v207h152v-207h-152z" />
<glyph unicode="&#xec;" horiz-adv-x="567" d="M184 131v690q0 45 -45 45h-84v170h197q70 0 100.5 -30.5t30.5 -100.5v-690q0 -45 45 -45h84v-170h-195q-70 0 -101.5 30.5t-31.5 100.5zM188 1186l-194 260h201l149 -260h-156z" />
<glyph unicode="&#xed;" horiz-adv-x="567" d="M184 131v690q0 45 -45 45h-84v170h197q70 0 100.5 -30.5t30.5 -100.5v-690q0 -45 45 -45h84v-170h-195q-70 0 -101.5 30.5t-31.5 100.5zM188 1186l150 260h201l-195 -260h-156z" />
<glyph unicode="&#xee;" horiz-adv-x="567" d="M184 131v690q0 45 -45 45h-84v170h197q70 0 100.5 -30.5t30.5 -100.5v-690q0 -45 45 -45h84v-170h-195q-70 0 -101.5 30.5t-31.5 100.5zM-2 1186l180 260h182l181 -260h-164l-107 166h-4l-106 -166h-162z" />
<glyph unicode="&#xef;" horiz-adv-x="567" d="M184 131v690q0 45 -45 45h-84v170h197q70 0 100.5 -30.5t30.5 -100.5v-690q0 -45 45 -45h84v-170h-195q-70 0 -101.5 30.5t-31.5 100.5zM332 1239v207h151v-207h-151zM47 1239v207h150v-207h-150z" />
<glyph unicode="&#xf0;" horiz-adv-x="1177" d="M78 481q0 193 130 333t355 140q158 -2 252 -86h4q-61 164 -223 273l-371 -164l-20 127l254 113q-125 63 -264 94l55 162q238 -53 424 -164l284 125l19 -125l-189 -86q295 -246 295 -660q0 -109 -29.5 -209t-89 -187t-164 -139.5t-237.5 -52.5q-223 0 -354 150.5 t-131 355.5zM279 477q0 -135 76.5 -232.5t211.5 -97.5q80 0 142.5 34t98.5 91.5t54.5 122t18.5 133.5q0 117 -79 192t-210 75q-150 0 -231.5 -93.5t-81.5 -224.5z" />
<glyph unicode="&#xf1;" horiz-adv-x="1282" d="M174 0v821q0 45 -45 45h-84v170h191q131 0 131 -114v-39l-5 -60h5q41 88 139 163t250 75q182 0 269 -98.5t87 -298.5v-449q0 -45 45 -45h84v-170h-197q-70 0 -100.5 30.5t-30.5 100.5v487q0 125 -39.5 193t-154.5 68q-119 0 -208 -71t-120 -183q-18 -53 -18 -140v-485 h-199zM313 1188q0 260 211 260q59 0 106.5 -35t83.5 -69.5t72 -34.5q43 0 62.5 40t19.5 93h136q0 -260 -211 -260q-59 0 -105.5 34.5t-83.5 69.5t-74 35q-43 0 -62 -40t-19 -93h-136z" />
<glyph unicode="&#xf2;" horiz-adv-x="1263" d="M74 520.5q0 233.5 161.5 387t395.5 153.5q236 0 397.5 -153.5t161.5 -387t-163 -389.5t-396.5 -156t-395 156t-161.5 389.5zM276 520q0 -160 103.5 -266.5t251.5 -106.5q150 0 253 105.5t103 267.5q0 160 -103.5 264.5t-252.5 104.5q-147 0 -251 -104.5t-104 -264.5z M551 1186l-195 260h201l150 -260h-156z" />
<glyph unicode="&#xf3;" horiz-adv-x="1263" d="M74 520.5q0 233.5 161.5 387t395.5 153.5q236 0 397.5 -153.5t161.5 -387t-163 -389.5t-396.5 -156t-395 156t-161.5 389.5zM276 520q0 -160 103.5 -266.5t251.5 -106.5q150 0 253 105.5t103 267.5q0 160 -103.5 264.5t-252.5 104.5q-147 0 -251 -104.5t-104 -264.5z M551 1186l149 260h201l-194 -260h-156z" />
<glyph unicode="&#xf4;" horiz-adv-x="1263" d="M74 520.5q0 233.5 161.5 387t395.5 153.5q236 0 397.5 -153.5t161.5 -387t-163 -389.5t-396.5 -156t-395 156t-161.5 389.5zM276 520q0 -160 103.5 -266.5t251.5 -106.5q150 0 253 105.5t103 267.5q0 160 -103.5 264.5t-252.5 104.5q-147 0 -251 -104.5t-104 -264.5z M362 1186l179 260h182l180 -260h-162l-106 164h-4l-109 -164h-160z" />
<glyph unicode="&#xf5;" horiz-adv-x="1263" d="M74 520.5q0 233.5 161.5 387t395.5 153.5q236 0 397.5 -153.5t161.5 -387t-163 -389.5t-396.5 -156t-395 156t-161.5 389.5zM276 520q0 -160 103.5 -266.5t251.5 -106.5q150 0 253 105.5t103 267.5q0 160 -103.5 264.5t-252.5 104.5q-147 0 -251 -104.5t-104 -264.5z M285 1188q0 260 211 260q59 0 106 -35t83 -69.5t73 -34.5q43 0 62.5 40t19.5 93h135q0 -260 -211 -260q-59 0 -105.5 34.5t-83 69.5t-73.5 35q-43 0 -62.5 -40t-19.5 -93h-135z" />
<glyph unicode="&#xf6;" horiz-adv-x="1263" d="M74 520.5q0 233.5 161.5 387t395.5 153.5q236 0 397.5 -153.5t161.5 -387t-163 -389.5t-396.5 -156t-395 156t-161.5 389.5zM276 520q0 -160 103.5 -266.5t251.5 -106.5q150 0 253 105.5t103 267.5q0 160 -103.5 264.5t-252.5 104.5q-147 0 -251 -104.5t-104 -264.5z M727 1239v207h150v-207h-150zM389 1239v207h152v-207h-152z" />
<glyph unicode="&#xf7;" d="M518 891v186h193v-186h-193zM98 504v160h1035v-160h-1035zM518 90v186h193v-186h-193z" />
<glyph unicode="&#xf8;" horiz-adv-x="1263" d="M193 -6l77 106q-197 156 -196 420q0 233 161.5 387t395.5 154q152 0 278 -70l82 115l96 -70l-79 -110q182 -162 182 -406q0 -233 -163 -389t-396 -156q-143 0 -260 62l-80 -115zM381 254l422 590q-80 45 -172 45q-147 0 -251 -104.5t-104 -264.5q1 -157 105 -266z M477 184q72 -37 154 -37q150 0 253 105.5t103 267.5q0 147 -94 246z" />
<glyph unicode="&#xf9;" horiz-adv-x="1271" d="M170 373v448q0 45 -45 45h-84v170h195q70 0 101.5 -30.5t31.5 -96.5v-491q0 -125 40 -191.5t152 -66.5q154 0 246 114.5t92 276.5v485h199v-821q0 -45 45 -45h84v-170h-191q-131 0 -131 115v39l2 59h-4q-39 -90 -140 -164t-241 -74q-176 0 -264 97.5t-88 300.5zM543 1186 l-195 260h201l149 -260h-155z" />
<glyph unicode="&#xfa;" horiz-adv-x="1271" d="M170 373v448q0 45 -45 45h-84v170h195q70 0 101.5 -30.5t31.5 -96.5v-491q0 -125 40 -191.5t152 -66.5q154 0 246 114.5t92 276.5v485h199v-821q0 -45 45 -45h84v-170h-191q-131 0 -131 115v39l2 59h-4q-39 -90 -140 -164t-241 -74q-176 0 -264 97.5t-88 300.5zM543 1186 l149 260h201l-195 -260h-155z" />
<glyph unicode="&#xfb;" horiz-adv-x="1271" d="M170 373v448q0 45 -45 45h-84v170h195q70 0 101.5 -30.5t31.5 -96.5v-491q0 -125 40 -191.5t152 -66.5q154 0 246 114.5t92 276.5v485h199v-821q0 -45 45 -45h84v-170h-191q-131 0 -131 115v39l2 59h-4q-39 -90 -140 -164t-241 -74q-176 0 -264 97.5t-88 300.5zM352 1186 l178 260h183l180 -260h-162l-106 164h-4l-109 -164h-160z" />
<glyph unicode="&#xfc;" horiz-adv-x="1271" d="M170 373v448q0 45 -45 45h-84v170h195q70 0 101.5 -30.5t31.5 -96.5v-491q0 -125 40 -191.5t152 -66.5q154 0 246 114.5t92 276.5v485h199v-821q0 -45 45 -45h84v-170h-191q-131 0 -131 115v39l2 59h-4q-39 -90 -140 -164t-241 -74q-176 0 -264 97.5t-88 300.5zM717 1239 v207h149v-207h-149zM379 1239v207h151v-207h-151z" />
<glyph unicode="&#xfd;" horiz-adv-x="1118" d="M92 -184q0 -2 18.5 -19.5t56.5 -36t77 -18.5q119 0 182 149l47 113l-354 821q-18 41 -66 41h-24v170h116q63 0 93 -21.5t55 -82.5l235 -584q20 -53 37 -125h4q14 72 35 125l215 584q23 61 55.5 82.5t96.5 21.5h119v-170h-27q-47 0 -66 -41l-409 -1011 q-47 -119 -135 -181.5t-199 -62.5q-68 0 -129.5 25.5t-87.5 52.5l-27 24zM479 1186l150 260h200l-194 -260h-156z" />
<glyph unicode="&#xfe;" horiz-adv-x="1230" d="M168 -410v1641q0 45 -45 45h-84v170h197q70 0 100.5 -31t30.5 -100v-334l-5 -90h5q98 170 325 170q211 0 337 -150.5t126 -392.5q0 -240 -126 -391.5t-337 -151.5q-68 0 -127 17.5t-94 41t-59.5 48t-34.5 41.5l-10 18h-5q4 -37 5 -90v-461h-199zM360 518 q0 -190 86 -280.5t216 -90.5q131 0 210.5 102.5t79.5 268.5t-79.5 268.5t-210.5 102.5q-133 0 -217.5 -89t-84.5 -282z" />
<glyph unicode="&#xff;" horiz-adv-x="1118" d="M92 -184q0 -2 18.5 -19.5t56.5 -36t77 -18.5q119 0 182 149l47 113l-354 821q-18 41 -66 41h-24v170h116q63 0 93 -21.5t55 -82.5l235 -584q20 -53 37 -125h4q14 72 35 125l215 584q23 61 55.5 82.5t96.5 21.5h119v-170h-27q-47 0 -66 -41l-409 -1011 q-47 -119 -135 -181.5t-199 -62.5q-68 0 -129.5 25.5t-87.5 52.5l-27 24zM653 1239v207h150v-207h-150zM315 1239v207h152v-207h-152z" />
<glyph unicode="&#x152;" horiz-adv-x="1902" d="M70 725q0 313 203.5 526t506.5 213q59 0 157.5 -9t137.5 -9h592q70 0 101.5 -31t31.5 -100v-182h-188v92q0 45 -45 45h-400v-453h496v-176h-496v-465h457q45 0 45 45v92h186v-182q0 -70 -29.5 -100.5t-94.5 -30.5h-656q-37 0 -136 -9t-159 -9q-303 0 -506.5 214 t-203.5 529zM283 725q0 -240 139 -396.5t358 -156.5q113 0 183 16v1069q-72 16 -183 17q-219 0 -358 -155.5t-139 -393.5z" />
<glyph unicode="&#x153;" horiz-adv-x="2052" d="M74 516q0 240 160.5 392.5t394.5 152.5q307 0 454 -246h4q131 246 426 246q211 0 330 -137.5t119 -348.5l-6 -81h-756q12 -164 113.5 -255.5t242.5 -91.5q80 0 156 31t111 60l37 30l86 -141q-16 -16 -49 -42t-137.5 -68t-215.5 -42q-313 0 -452 252h-5 q-70 -119 -186.5 -185.5t-269.5 -66.5q-236 0 -396.5 150.5t-160.5 390.5zM1208 639h549q-6 125 -73.5 194.5t-170.5 69.5q-119 0 -200.5 -68.5t-104.5 -195.5zM276 516q0 -166 102.5 -267.5t252 -101.5t253 103.5t103.5 271.5q0 162 -104.5 264.5t-251.5 102.5 q-150 0 -252.5 -103.5t-102.5 -269.5z" />
<glyph unicode="&#x178;" horiz-adv-x="1234" d="M516 0v631l-366 588q-31 51 -89 51h-41v176h95q76 0 114.5 -20.5t79.5 -90.5l219 -364l88 -162h5q39 82 88 162l217 364q41 70 79.5 90.5t114.5 20.5h94v-176h-38q-59 0 -91 -51l-364 -588v-631h-205zM715 1599v207h149v-207h-149zM377 1599v207h151v-207h-151z" />
<glyph unicode="&#x2c6;" horiz-adv-x="993" d="M227 1546l179 260h182l180 -260h-162l-106 164h-4l-109 -164h-160z" />
<glyph unicode="&#x2dc;" horiz-adv-x="1062" d="M188 1548q0 260 211 260q59 0 106.5 -34.5t83.5 -69.5t73 -35q43 0 62 40t19 93h136q0 -260 -211 -260q-59 0 -105.5 35t-83.5 69.5t-73 34.5q-43 0 -62.5 -39.5t-19.5 -93.5h-136z" />
<glyph unicode="&#x2000;" horiz-adv-x="913" />
<glyph unicode="&#x2001;" horiz-adv-x="1826" />
<glyph unicode="&#x2002;" horiz-adv-x="913" />
<glyph unicode="&#x2003;" horiz-adv-x="1826" />
<glyph unicode="&#x2004;" horiz-adv-x="608" />
<glyph unicode="&#x2005;" horiz-adv-x="456" />
<glyph unicode="&#x2006;" horiz-adv-x="303" />
<glyph unicode="&#x2007;" horiz-adv-x="303" />
<glyph unicode="&#x2008;" horiz-adv-x="227" />
<glyph unicode="&#x2009;" horiz-adv-x="364" />
<glyph unicode="&#x200a;" horiz-adv-x="100" />
<glyph unicode="&#x2010;" horiz-adv-x="882" d="M143 496v176h598v-176h-598z" />
<glyph unicode="&#x2011;" horiz-adv-x="882" d="M143 496v176h598v-176h-598z" />
<glyph unicode="&#x2012;" horiz-adv-x="882" d="M143 496v176h598v-176h-598z" />
<glyph unicode="&#x2013;" horiz-adv-x="1335" d="M129 504v160h1077v-160h-1077z" />
<glyph unicode="&#x2014;" horiz-adv-x="1744" d="M129 504v160h1487v-160h-1487z" />
<glyph unicode="&#x2018;" horiz-adv-x="466" d="M96 1069l133 399h142l-88 -399h-187z" />
<glyph unicode="&#x2019;" horiz-adv-x="466" d="M96 1071l88 399h187l-133 -399h-142z" />
<glyph unicode="&#x201a;" horiz-adv-x="466" d="M184 215h187l-133 -399h-142z" />
<glyph unicode="&#x201c;" horiz-adv-x="751" d="M379 1069l133 399h143l-88 -399h-188zM96 1069l133 399h142l-88 -399h-187z" />
<glyph unicode="&#x201d;" horiz-adv-x="751" d="M379 1071l88 399h188l-133 -399h-143zM96 1071l88 399h187l-133 -399h-142z" />
<glyph unicode="&#x201e;" horiz-adv-x="751" d="M379 -184l88 399h188l-133 -399h-143zM184 215h187l-133 -399h-142z" />
<glyph unicode="&#x2022;" horiz-adv-x="929" d="M465 279q-133 0 -225.5 92t-92.5 225t92.5 225t225.5 92q131 0 223 -93t92 -224t-92 -224t-223 -93z" />
<glyph unicode="&#x2026;" horiz-adv-x="1851" d="M1356 0v211h203v-211h-203zM823 0v211h205v-211h-205zM293 0v211h203v-211h-203z" />
<glyph unicode="&#x202f;" horiz-adv-x="364" />
<glyph unicode="&#x2039;" horiz-adv-x="751" d="M422 158l-336 420l336 421h199l-336 -421l336 -420h-199z" />
<glyph unicode="&#x203a;" horiz-adv-x="751" d="M127 158l336 420l-336 421h199l336 -421l-336 -420h-199z" />
<glyph unicode="&#x205f;" horiz-adv-x="456" />
<glyph unicode="&#x20ac;" horiz-adv-x="1230" d="M80 528v129h121q-4 37 -4 68l4 80h-121v131h143q63 238 254 386t441 148l196 -24l-49 -186q-72 23 -152 22q-170 0 -295.5 -94t-177.5 -252h568l-29 -131h-569q-4 -35 -4 -76l4 -72h542l-24 -129h-484q47 -164 176.5 -262t299.5 -98q47 0 95 7t70 13l25 9l41 -187 q-100 -35 -233 -35q-260 0 -448.5 153t-248.5 400h-141z" />
<glyph unicode="&#x2122;" horiz-adv-x="2013" d="M866 545v137h47q20 0 23 18l59 746h142l213 -471l28 -86h4q12 49 27 86l213 471h143l60 -746q0 -18 20 -18h49v-137h-120q-55 0 -76 18.5t-25 73.5l-35 446l2 62h-4l-194 -434h-125l-195 434h-4l2 -62l-35 -446q-4 -55 -24.5 -73.5t-75.5 -18.5h-119zM391 545v764h-155 q-18 0 -19 -19v-61h-137v125q0 53 19.5 72.5t76.5 19.5h586q55 0 75.5 -19.5t20.5 -72.5v-125h-135v61q0 18 -18 19h-158v-764h-156z" />
<glyph unicode="&#xe000;" horiz-adv-x="1035" d="M0 1035h1035v-1035h-1035v1035z" />
<glyph unicode="&#xfb01;" horiz-adv-x="1208" d="M174 0v877h-129v159h129v35q0 98 28.5 171t70.5 113t98.5 63.5t101.5 30.5t92 7l76 -6v-170q-23 4 -55 4q-35 0 -67 -8t-67.5 -28.5t-57 -67.5t-21.5 -115v-29h522q70 0 100.5 -30.5t30.5 -100.5v-690q0 -45 45 -45h84v-170h-194q-70 0 -102 30.5t-32 100.5v700 q0 45 -45 46h-409v-877h-199zM831 1239v207h181v-207h-181z" />
<glyph unicode="&#xfb02;" horiz-adv-x="1193" d="M565 1446h318q70 0 100.5 -31t30.5 -100v-1100q0 -45 45 -45h84v-170h-197q-70 0 -100.5 30.5t-30.5 100.5v1100q0 45 -45 45h-180q-217 0 -217 -209v-31h245v-159h-245v-877h-199v877h-129v159h129v35q0 98 28.5 170t69.5 110t99.5 60.5t101.5 28.5t92 6z" />
<glyph unicode="&#xfb03;" horiz-adv-x="1851" d="M174 0v877h-129v159h129v35q0 98 28.5 171t70.5 113t98.5 63.5t101.5 30.5t92 7l76 -6v-170q-23 4 -55 4q-35 0 -67 -8t-67.5 -28.5t-57 -67.5t-21.5 -115v-29h446v35q0 98 29 171t71 113t98 63.5t101 30.5t92 7l76 -6v-170q-23 4 -55 4q-35 0 -66.5 -8t-67.5 -28.5 t-57.5 -67.5t-21.5 -115v-29h522q70 0 100.5 -30.5t30.5 -100.5v-690q0 -45 45 -45h84v-170h-196q-70 0 -100.5 30.5t-30.5 100.5v700q0 45 -46 46h-409v-877h-199v877h-446v-877h-199zM1477 1239v207h178v-207h-178z" />
<glyph unicode="&#xfb04;" horiz-adv-x="1837" d="M1208 1446h318q70 0 100.5 -31t30.5 -100v-1100q0 -45 45 -45h84v-170h-197q-70 0 -100.5 30.5t-30.5 100.5v1100q0 45 -45 45h-180q-217 0 -217 -209v-31h246v-159h-246v-877h-199v877h-444v-877h-199v877h-129v159h129v39q0 96 28.5 169t68.5 112t96.5 62.5t101.5 30.5 t92 7l80 -6v-170q-25 4 -55 4q-35 0 -67 -8t-67.5 -28.5t-57 -67.5t-21.5 -113v-31h444v35q0 98 28.5 170t69.5 110t99.5 60.5t101.5 28.5t92 6z" />
</font>
</defs></svg> 